{
    "chipType" : "RD53A",
    "chips" : [
        {
            "config" : "configs/chip-specific/0x0B6C/0x0B6C_syn_1500e_5e15_-25C.json",
            "tx" : 0,
            "rx" : 0
        }
    ]
}
