{
  "scan": {
    "analysis": {
      "0": {
        "algorithm": "ScurveFitter"
      },
      "1": {
        "algorithm": "OccupancyAnalysis"
      },
      "n_count": 1
    },
    "histogrammer": {
      "0": {
        "algorithm": "OccupancyMap",
        "config": {}
      },
      "1": {
        "algorithm": "TotMap",
        "config": {}
      },
      "2": {
        "algorithm": "Tot2Map",
        "config": {}
      },
      "3": {
        "algorithm": "L1Dist",
        "config": {}
      },
      "4": {
        "algorithm": "HitsPerEvent",
        "config": {}
      },
      "n_count": 5
    },
    "loops": [
      {
        "config": {
          "max": 32,
          "min": 0,
          "step": 1
        },
        "loopAction": "Rd53aMaskLoop"
      },
      {
        "config": {
          "max": 15,
          "min": 1,
          "step": 2,
          "nSteps": 4
        },
        "loopAction": "Rd53aCoreColLoop"
      },
      {
        "config": {
          "1": {
            "max": 3980,
            "min": 3770,
            "step": 10,
            "parameter": "InjVcalHigh"
          },
          "2": {
            "max": 280,
            "min": 70,
            "step": 10,
            "parameter": "InjVcalMed"
          },
          "log": "InjVcalMed"
        },
        "loopAction": "Rd53aParameterLoop"
      },
      {
        "config": {
          "count": 100,
          "delay": 20,
          "extTrigger": false,
          "frequency": 10000,
          "noInject": false,
          "time": 0,
          "doubleDelay": 190,
          "Ntrig1": 0,
          "Ntrig2": 8
        },
        "loopAction": "Rd53a2TriggerLoop"
      },
      {
        "loopAction": "StdDataLoop"
      }
    ],
    "name": "ThresholdScan",
    "prescan": {
      "InjEnDig": 0,
      "LatencyConfig": 20,
      "GlobalPulseRt": 16384,
      "InjVcalMed": 70,
      "InjVcalHigh": 3770,
      "EnCorColDiff1": 0,
      "EnCoreColDiff2": 0,
      "EnCoreColLin1": 0,
      "EnCoreColLin2": 0
    }
  }
}