{
    "chipType" : "RD53A",
    "chips" : [
        {
            "config" : "configs/chip-specific/0x0B7C/FPM/0x0B7C_diff_1800e_1e16_-40C.json",
            "tx" : 0,
            "rx" : 0
        }
    ]
}
