{
    "chipType" : "RD53A",
    "chips" : [
        {
            "config" : "configs/chip-specific/0x0B62/FPM/2nA_LC/0x0B62_diff_900e_5e15_-2C.json",
            "tx" : 0,
            "rx" : 0
        }
    ]
}
