{
    "ctrlCfg" : {
        "type": "spec",
        "cfg" : {
            "specNum" : 0,
            "spiConfig" : 524288,
            "autoZero" : {
                "word" : 0,
                "oldword" : 1549575846,
                "interval" : 500
            },
            "cmdPeriod" : 6.25e-9
        }
    }
}
