{
  "scan": {
    "analysis": {
      "0": {
        "algorithm": "ScurveFitter"
      },
      "1": {
        "algorithm": "OccupancyAnalysis"
      },
      "n_count": 1
    },
    "histogrammer": {
      "0": {
        "algorithm": "OccupancyMap",
        "config": {}
      },
      "1": {
        "algorithm": "TotMap",
        "config": {}
      },
      "2": {
        "algorithm": "Tot2Map",
        "config": {}
      },
      "3": {
        "algorithm": "L1Dist",
        "config": {}
      },
      "4": {
        "algorithm": "HitsPerEvent",
        "config": {}
      },
      "n_count": 5
    },
    "loops": [
      {
        "config": {
          "max": 64,
          "min": 0,
          "step": 1
        },
        "loopAction": "Rd53aMaskLoop"
      },
      {
        "config": {
          "1": {
            "max": 482,
            "min": 350,
            "step": 3,
            "parameter": "InjVcalHigh"
          },
          "2": {
            "max": 182,
            "min": 50,
            "step": 3,
            "parameter": "InjVcalMed"
          },
          "log": "InjVcalMed"
        },
        "loopAction": "Rd53aParameterLoop"
      },
      {
        "config": {
          "max": 50,
          "min": 34,
          "step": 1,
          "nSteps": 1
        },
        "loopAction": "Rd53aCoreColLoop"
      },
      {
        "config": {
          "count": 100,
          "delay": 24,
          "extTrigger": false,
          "frequency": 1000,
          "noInject": false,
          "time": 0,
          "edgeDelay": 0,
          "auxMode": 0,
          "auxDelay": 5,
          "edgeMode": false,
          "doubleInject": true,
          "doubleDelay": 180
        },
        "loopAction": "Rd53aTriggerLoop"
      },
      {
        "loopAction": "StdDataLoop"
      }
    ],
    "name": "ThresholdScan",
    "prescan": {
      "InjEnDig": 0,
      "LatencyConfig": 24,
      "GlobalPulseRt": 16384
    }
  }
}