{
  "scan": {
    "analysis": {
      "0": {
        "algorithm": "ScurveFitter"
      },
      "1": {
        "algorithm": "OccupancyAnalysis"
      },
      "n_count": 1
    },
    "histogrammer": {
      "0": {
        "algorithm": "OccupancyMap",
        "config": {}
      },
      "1": {
        "algorithm": "TotMap",
        "config": {}
      },
      "2": {
        "algorithm": "Tot2Map",
        "config": {}
      },
      "3": {
        "algorithm": "L1Dist",
        "config": {}
      },
      "4": {
        "algorithm": "HitsPerEvent",
        "config": {}
      },
      "n_count": 5
    },
    "loops": [
      {
        "config": {
          "max": 64,
          "min": 0,
          "step": 4
        },
        "loopAction": "Rd53aMaskLoop"
      },
      {
        "config": {
          "max": 350,
          "min": 340,
          "step": 3,
          "parameter":"InjVcalDiff"
        },
        "loopAction": "Rd53aParameterLoop"
      },
      {
        "config": {
          "max": 50,
          "min": 49,
          "step": 1,
          "nSteps": 1
        },
        "loopAction": "Rd53aCoreColLoop"
      },
      {
        "config": {
          "count": 50,
          "delay": 48,
          "extTrigger": false,
          "frequency": 5000,
          "noInject": false,
          "time": 0
        },
        "loopAction": "Rd53aTriggerLoop"
      },
      {
        "loopAction": "StdDataLoop"
      }
    ],
    "name": "ThresholdScan",
    "prescan": {
        "InjEnDig": 0,
        "LatencyConfig": 50,
        "GlobalPulseRt": 16384,
        "InjVcalMed": 1000,
        "InjVcalHigh": 1000
    }
  }
}
