{
  "scan": {
    "analysis": {
      "0": {
        "algorithm": "ScurveFitter"
      },
      "1": {
        "algorithm": "L1Analysis"
      },
      "n_count": 1
    },
    "histogrammer": {
      "0": {
        "algorithm": "OccupancyMap",
        "config": {}
      },
      "1": {
        "algorithm": "TotMap",
        "config": {}
      },
      "2": {
        "algorithm": "Tot2Map",
        "config": {}
      },
      "3": {
        "algorithm": "L1Dist",
        "config": {}
      },
      "4": {
        "algorithm": "HitsPerEvent",
        "config": {}
      },
      "n_count": 5
    },
    "loops": [
      {
        "config": {
          "max": 64,
          "min": 0,
          "step": 2
        },
        "loopAction": "Rd53aMaskLoop"
      },
      {
        "config": {
          "1": {
            "max": 160,
            "min": 40,
            "step": 5,
            "parameter": "InjVcalHigh"
          },
          "2": {
            "max": 160,
            "min": 40,
            "step": 5,
            "parameter": "InjVcalMed"
          },
          "log": "InjVcalMed"
        },
        "loopAction": "Rd53aParameterLoop"
      },
      {
        "config": {
          "max": 33,
          "min": 16,
          "step": 1,
          "nSteps": 4
        },
        "loopAction": "Rd53aCoreColLoop"
      },
      {
        "config": {
          "count": 100,
          "delay": 48,
          "extTrigger": false,
          "frequency": 20000,
          "noInject": false,
          "time": 0,
          "edgeMode": true,
          "auxMode": true,
          "auxDelay": 1,
          "edgeDuration": 63
        },
        "loopAction": "Rd53aTriggerLoop"
      },
      {
        "loopAction": "StdDataLoop"
      }
    ],
    "name": "ThresholdScan",
    "prescan": {
        "InjEnDig": 0,
        "LatencyConfig": 35,
        "GlobalPulseRt": 16384,
        "InjVcalMed": 1000,
        "InjVcalHigh": 1000,
        "EnCorColDiff1": 0,
        "EnCoreColDiff2": 0,
        "EnCoreColSync":0
    }
  }
}
