{
  "scan": {
    "analysis": {
      "0": {
        "algorithm": "ScurveFitter"
      },
      "1": {
        "algorithm": "L1Analysis"
      },
      "n_count": 1
    },
    "histogrammer": {
      "0": {
        "algorithm": "OccupancyMap",
        "config": {}
      },
      "1": {
        "algorithm": "TotMap",
        "config": {}
      },
      "2": {
        "algorithm": "Tot2Map",
        "config": {}
      },
      "3": {
        "algorithm": "L1Dist",
        "config": {}
      },
      "4": {
        "algorithm": "HitsPerEvent",
        "config": {}
      },
      "n_count": 5
    },
    "loops": [
      {
        "config": {
          "max": 32,
          "min": 0,
          "step": 1
        },
        "loopAction": "Rd53aMaskLoop"
      },
      {
        "config": {
          "1": {
            "max": 210,
            "min": 50,
            "step": 5,
            "parameter": "InjVcalHigh"
          },
          "2": {
            "max": 160,
            "min": 0,
            "step": 5,
            "parameter": "InjVcalMed"
          },
          "log": "InjVcalMed"
        },
        "loopAction": "Rd53aParameterLoop"
      },
      {
        "config": {
          "max": 32,
          "min": 17,
          "step": 2,
          "nSteps": 4
        },
        "loopAction": "Rd53aCoreColLoop"
      },
      {
        "config": {
          "count": 100,
          "delay": 8,
          "extTrigger": false,
          "frequency": 20000,
          "noInject": false,
          "time": 0,
          "doubleDelay": 4,
          "Ntrig1": 0,
          "Ntrig2": 8
        },
        "loopAction": "Rd53a2TriggerLoop"
      },
      {
        "loopAction": "StdDataLoop"
      }
    ],
    "name": "ThresholdScan",
    "prescan": {
      "InjEnDig": 0,
      "LatencyConfig": 10,
      "GlobalPulseRt": 16384,
      "InjVcalMed": 0,
      "InjVcalHigh": 50,
      "EnCorColDiff1": 0,
      "EnCoreColDiff2": 0,
      "EnCoreColSync": 0
    }
  }
}