{
    "chipType" : "RD53A",
    "chips" : [
        {
            "config" : "configs/chip-specific/0x0B62/syn/0x0B62_syn_1200e_5e15_-40C.json",
            "tx" : 0,
            "rx" : 0
        }
    ]
}
